0.01 0.87846 0.75581 1.0011
0.02 0.87846 0.75581 1.0011
0.03 0.87846 0.75581 1.0011
0.04 0.87846 0.75581 1.0011
0.05 0.87846 0.75581 1.0011
0.06 0.87846 0.75581 1.0011
0.07 0.87862 0.75586 1.0014
0.08 0.87892 0.75603 1.0018
0.09 0.87908 0.756 1.0022
0.1 0.87938 0.75695 1.0018
0.11 0.87954 0.75755 1.0015
0.12 0.87969 0.75768 1.0017
0.13 0.87969 0.75768 1.0017
0.14 0.88015 0.75901 1.0013
0.15 0.88046 0.7592 1.0017
0.16 0.88077 0.75923 1.0023
0.17 0.88138 0.76064 1.0021
0.18 0.88154 0.76085 1.0022
0.19 0.88154 0.76085 1.0022
0.2 0.88154 0.76085 1.0022
0.21 0.88138 0.76096 1.0018
0.22 0.88169 0.76131 1.0021
0.23 0.88169 0.76131 1.0021
0.24 0.88169 0.76211 1.0013
0.25 0.88154 0.76229 1.0008
0.26 0.88185 0.76353 1.0002
0.27 0.88185 0.76353 1.0002
0.28 0.882 0.76367 1.0003
0.29 0.88185 0.76378 0.99992
0.3 0.88215 0.76389 1.0004
0.31 0.88215 0.76389 1.0004
0.32 0.88231 0.76387 1.0007
0.33 0.88246 0.76385 1.0011
0.34 0.88262 0.76448 1.0007
0.35 0.88262 0.76448 1.0007
0.36 0.88262 0.76481 1.0004
0.37 0.88323 0.76474 1.0017
0.38 0.88323 0.76474 1.0017
0.39 0.88369 0.76624 1.0011
0.4 0.884 0.76727 1.0007
0.41 0.884 0.76727 1.0007
0.42 0.88415 0.76767 1.0006
0.43 0.88415 0.76767 1.0006
0.44 0.88415 0.76767 1.0006
0.45 0.88446 0.76805 1.0009
0.46 0.88477 0.76722 1.0023
0.47 0.88446 0.76781 1.0011
0.48 0.88462 0.76772 1.0015
0.49 0.88477 0.76803 1.0015
0.5 0.88415 0.76701 1.0013
0.51 0.88446 0.76789 1.001
0.52 0.88477 0.76943 1.0001
0.53 0.88508 0.76983 1.0003
0.54 0.88508 0.76983 1.0003
0.55 0.88508 0.76983 1.0003
0.56 0.88523 0.76998 1.0005
0.57 0.88569 0.77138 1
0.58 0.88569 0.77138 1
0.59 0.88615 0.77253 0.99978
0.6 0.88615 0.77253 0.99978
0.61 0.88615 0.77253 0.99978
0.62 0.88615 0.77262 0.99969
0.63 0.88615 0.77262 0.99969
0.64 0.88615 0.77262 0.99969
0.65 0.88615 0.77262 0.99969
0.66 0.88631 0.77295 0.99967
0.67 0.88646 0.77404 0.99888
0.68 0.88662 0.77506 0.99817
0.69 0.88646 0.77507 0.99786
0.7 0.88677 0.77591 0.99762
0.71 0.88677 0.77591 0.99762
0.72 0.88708 0.77651 0.99765
0.73 0.88723 0.77676 0.9977
0.74 0.88708 0.77642 0.99773
0.75 0.88738 0.77667 0.9981
0.76 0.88738 0.77667 0.9981
0.77 0.88738 0.77667 0.9981
0.78 0.88738 0.77667 0.9981
0.79 0.88738 0.77667 0.9981
0.8 0.88785 0.77744 0.99825
0.81 0.88723 0.77659 0.99787
0.82 0.88723 0.77659 0.99787
0.83 0.88723 0.77659 0.99787
0.84 0.88723 0.77659 0.99787
0.85 0.88723 0.77659 0.99787
0.86 0.88723 0.77659 0.99787
0.87 0.88738 0.77658 0.99818
0.88 0.88785 0.77779 0.9979
0.89 0.88815 0.77814 0.99817
0.9 0.88877 0.78059 0.99695
0.91 0.88862 0.78006 0.99717
0.92 0.88892 0.78059 0.99725
0.93 0.88923 0.78122 0.99724
0.94 0.88954 0.78149 0.99759
0.95 0.88954 0.78149 0.99759
0.96 0.88969 0.78265 0.99673
0.97 0.88938 0.78264 0.99612
0.98 0.88954 0.78292 0.99616
0.99 0.88969 0.7831 0.99628
1 0.88985 0.78382 0.99587
1.5 0.89354 0.78319 1.0039
10 0.69662 0.46953 0.9237
15 0.56169 0.32515 0.79824
2 0.89646 0.78775 1.0052
2.5 0.89708 0.77781 1.0163
20 0.48231 0.28764 0.67698
25 0.41815 0.24966 0.58665
3 0.89523 0.76843 1.022
3.5 0.89215 0.75507 1.0292
30 0.32862 0.1446 0.51264
35 0.26985 0.097977 0.44171
4 0.88369 0.733 1.0344
4.5 0.87738 0.72022 1.0345
40 0.23846 0.083316 0.39361
45 0.22169 0.08576 0.35763
5 0.86215 0.69517 1.0291
5.5 0.84723 0.66743 1.027
50 0.21215 0.08388 0.34043
55 0.20877 0.081171 0.33637
6 0.83462 0.64818 1.0211
6.5 0.81815 0.62447 1.0118
60 0.20769 0.082497 0.33289
65 0.20677 0.085546 0.32799
7 0.80215 0.60594 0.99837
7.5 0.78569 0.58888 0.98251
70 0.19985 0.094659 0.30503
75 0.19631 0.090249 0.30237
8 0.77108 0.57387 0.96828
8.5 0.74831 0.54246 0.95416
80 0.19631 0.090249 0.30237
85 0.19631 0.090249 0.30237
9 0.73123 0.51727 0.94519
9.5 0.71323 0.49428 0.93218
90 0.19631 0.090249 0.30237
95 0.19631 0.090249 0.30237
