0.01 0.88323 0.7753 0.99116
0.02 0.88323 0.7753 0.99116
0.03 0.88369 0.77708 0.99031
0.04 0.88462 0.77798 0.99125
0.05 0.88508 0.77809 0.99206
0.06 0.88538 0.77823 0.99254
0.07 0.88538 0.77823 0.99254
0.08 0.88585 0.77951 0.99218
0.09 0.88662 0.78105 0.99218
0.1 0.88769 0.78169 0.9937
0.11 0.88754 0.78188 0.9932
0.12 0.88785 0.78277 0.99292
0.13 0.88769 0.78232 0.99306
0.14 0.888 0.78285 0.99315
0.15 0.88938 0.78473 0.99404
0.16 0.88985 0.78482 0.99487
0.17 0.89062 0.7876 0.99363
0.18 0.89077 0.78863 0.99291
0.19 0.89077 0.78863 0.99291
0.2 0.89108 0.78845 0.9937
0.21 0.89138 0.78874 0.99403
0.22 0.89138 0.78865 0.99412
0.23 0.89262 0.79015 0.99508
0.24 0.89292 0.79112 0.99473
0.25 0.89415 0.79259 0.99571
0.26 0.89492 0.79376 0.99608
0.27 0.89508 0.79407 0.99608
0.28 0.89538 0.79461 0.99616
0.29 0.89569 0.79572 0.99567
0.3 0.89662 0.79813 0.9951
0.31 0.89723 0.79848 0.99598
0.32 0.89754 0.80002 0.99506
0.33 0.89846 0.80225 0.99468
0.34 0.90046 0.80713 0.99379
0.35 0.90092 0.80822 0.99363
0.36 0.90231 0.8095 0.99512
0.37 0.90246 0.80998 0.99495
0.38 0.90292 0.80998 0.99587
0.39 0.90292 0.80998 0.99587
0.4 0.90323 0.81022 0.99624
0.41 0.90338 0.81019 0.99658
0.42 0.90431 0.81398 0.99463
0.43 0.90431 0.81398 0.99463
0.44 0.90415 0.8139 0.9944
0.45 0.90492 0.81644 0.99341
0.46 0.90508 0.81717 0.99299
0.47 0.90492 0.81698 0.99287
0.48 0.90615 0.82051 0.9918
0.49 0.90646 0.8208 0.99213
0.5 0.90754 0.82755 0.98752
0.51 0.90831 0.82887 0.98774
0.52 0.91 0.83123 0.98877
0.53 0.91015 0.83122 0.98908
0.54 0.91 0.83136 0.98864
0.55 0.90923 0.83204 0.98642
0.56 0.90954 0.8325 0.98657
0.57 0.91015 0.83344 0.98687
0.58 0.91077 0.83502 0.98652
0.59 0.91108 0.83526 0.9869
0.6 0.91262 0.84335 0.98189
0.61 0.91292 0.84347 0.98238
0.62 0.91154 0.83818 0.9849
0.63 0.91215 0.83803 0.98628
0.64 0.91231 0.83815 0.98646
0.65 0.91308 0.84064 0.98552
0.66 0.91246 0.83998 0.98495
0.67 0.91338 0.84291 0.98386
0.68 0.91446 0.84838 0.98054
0.69 0.91508 0.84955 0.9806
0.7 0.91554 0.85194 0.97914
0.71 0.91785 0.85627 0.97942
0.72 0.91754 0.85484 0.98023
0.73 0.91769 0.85532 0.98006
0.74 0.91785 0.85596 0.97973
0.75 0.91877 0.85645 0.98109
0.76 0.91862 0.85611 0.98112
0.77 0.91846 0.85623 0.9807
0.78 0.91969 0.85964 0.97975
0.79 0.92077 0.86285 0.97869
0.8 0.92108 0.86496 0.97719
0.81 0.92062 0.86449 0.97674
0.82 0.92108 0.86462 0.97753
0.83 0.92169 0.86516 0.97822
0.84 0.92185 0.86555 0.97814
0.85 0.92154 0.86494 0.97814
0.86 0.92231 0.86624 0.97838
0.87 0.92323 0.8694 0.97706
0.88 0.92215 0.86721 0.97709
0.89 0.92338 0.86912 0.97765
0.9 0.924 0.86923 0.97877
0.91 0.92431 0.86974 0.97887
0.92 0.92523 0.87043 0.98003
0.93 0.92569 0.87088 0.9805
0.94 0.926 0.87108 0.98092
0.95 0.92662 0.87308 0.98015
0.96 0.92769 0.87549 0.9799
0.97 0.92677 0.86663 0.98691
0.98 0.92569 0.86368 0.9877
0.99 0.92292 0.85193 0.99391
