0.01 0.31383 0.27696 0.35071
0.02 0.31392 0.27717 0.35067
0.03 0.31443 0.27684 0.35202
0.04 0.31544 0.27825 0.35264
0.05 0.31664 0.27819 0.35508
0.06 0.317 0.27933 0.35468
0.07 0.31764 0.27934 0.35594
0.08 0.31848 0.28123 0.35572
0.09 0.3191 0.28041 0.35778
0.1 0.31925 0.28054 0.35796
0.11 0.3194 0.28065 0.35816
0.12 0.3194 0.28065 0.35816
0.13 0.31967 0.28107 0.35828
0.14 0.32104 0.28555 0.35653
0.15 0.32196 0.28568 0.35825
0.16 0.32234 0.28658 0.3581
0.17 0.32242 0.28667 0.35817
0.18 0.32276 0.28796 0.35755
0.19 0.32401 0.2887 0.35932
0.2 0.32426 0.28888 0.35965
0.21 0.32561 0.29221 0.35902
0.22 0.32617 0.29349 0.35886
0.23 0.32661 0.29383 0.35939
0.24 0.32676 0.29371 0.35981
0.25 0.32673 0.29339 0.36006
0.26 0.32737 0.29344 0.36129
0.27 0.32877 0.29402 0.36353
0.28 0.32905 0.29441 0.36369
0.29 0.33013 0.29702 0.36323
0.3 0.3305 0.2974 0.3636
0.31 0.33081 0.29824 0.36339
0.32 0.33101 0.29836 0.36366
0.33 0.3318 0.30092 0.36268
0.34 0.33261 0.30193 0.3633
0.35 0.33312 0.30222 0.36402
0.36 0.33345 0.30292 0.36397
0.37 0.33383 0.303 0.36466
0.38 0.33458 0.30333 0.36583
0.39 0.3359 0.30428 0.36752
0.4 0.33693 0.30789 0.36597
0.41 0.33802 0.31192 0.36413
0.42 0.3383 0.31313 0.36347
0.43 0.33871 0.31333 0.36408
0.44 0.33873 0.31302 0.36444
0.45 0.3391 0.31348 0.36472
0.46 0.33943 0.31401 0.36484
0.47 0.33984 0.31399 0.36569
0.48 0.33982 0.3139 0.36573
0.49 0.33986 0.31402 0.3657
0.5 0.3401 0.31446 0.36574
0.51 0.3404 0.31458 0.36622
0.52 0.34078 0.31571 0.36584
0.53 0.3413 0.31519 0.36741
0.54 0.34131 0.31527 0.36734
0.55 0.34182 0.31616 0.36748
0.56 0.34206 0.31618 0.36794
0.57 0.34237 0.31654 0.36821
0.58 0.34242 0.31604 0.3688
0.59 0.343 0.31792 0.36809
0.6 0.34365 0.31773 0.36958
0.61 0.34402 0.31855 0.36949
0.62 0.34417 0.31906 0.36929
0.63 0.34418 0.31925 0.3691
0.64 0.34465 0.32074 0.36855
0.65 0.34525 0.32219 0.36832
0.66 0.34611 0.32322 0.369
0.67 0.34661 0.32274 0.37047
0.68 0.34757 0.32492 0.37022
0.69 0.34867 0.32619 0.37114
0.7 0.34967 0.32807 0.37128
0.71 0.35024 0.3294 0.37107
0.72 0.35165 0.32985 0.37344
0.73 0.3525 0.32972 0.37527
0.74 0.35316 0.33035 0.37596
0.75 0.35346 0.33055 0.37637
0.76 0.354 0.33045 0.37755
0.77 0.3548 0.3334 0.3762
0.78 0.35505 0.33435 0.37575
0.79 0.35534 0.33483 0.37586
0.8 0.35547 0.33506 0.37588
0.81 0.35564 0.33521 0.37607
0.82 0.35678 0.33732 0.37625
0.83 0.35761 0.34067 0.37456
0.84 0.35857 0.34213 0.375
0.85 0.35914 0.3426 0.37567
0.86 0.35941 0.34324 0.37558
0.87 0.35986 0.34446 0.37526
0.88 0.36113 0.34568 0.37658
0.89 0.36166 0.34547 0.37785
0.9 0.36221 0.34578 0.37863
0.91 0.36285 0.34613 0.37958
0.92 0.36345 0.34629 0.38061
0.93 0.36395 0.34704 0.38086
0.94 0.36511 0.34732 0.38289
0.95 0.3653 0.3474 0.3832
0.96 0.36592 0.34791 0.38393
0.97 0.36644 0.34811 0.38476
0.98 0.36755 0.34926 0.38584
